<?xml version="1.0" encoding="UTF-8" standalone="no"?>
<svg
   xmlns:dc="http://purl.org/dc/elements/1.1/"
   xmlns:cc="http://creativecommons.org/ns#"
   xmlns:rdf="http://www.w3.org/1999/02/22-rdf-syntax-ns#"
   xmlns:svg="http://www.w3.org/2000/svg"
   xmlns="http://www.w3.org/2000/svg"
   xmlns:sodipodi="http://sodipodi.sourceforge.net/DTD/sodipodi-0.dtd"
   xmlns:inkscape="http://www.inkscape.org/namespaces/inkscape"
   version="1.1"
   id="Layer_1"
   inkscape:version="1.0.1 (c497b03c, 2020-09-10)"
   sodipodi:docname="vidado.svg"
   x="0px"
   y="0px"
   viewBox="0 0 18.8 18"
   style="enable-background:new 0 0 18.8 18;"
   xml:space="preserve"><metadata
   id="metadata1611"><rdf:RDF><cc:Work
       rdf:about=""><dc:format>image/svg+xml</dc:format><dc:type
         rdf:resource="http://purl.org/dc/dcmitype/StillImage" /></cc:Work></rdf:RDF></metadata>
<style
   type="text/css"
   id="style1494">
	.st0{display:none;}
	.st1{display:inline;opacity:0.5;}
	.st2{fill:#6FCBDC;}
	.st3{display:inline;}
	.st4{opacity:0.5;fill:none;stroke:#A8A7A8;stroke-width:5.000000e-02;stroke-miterlimit:10;enable-background:new    ;}
	.st5{fill:none;stroke:#A8A7A8;stroke-width:5.000000e-02;stroke-miterlimit:10;}
	.st6{display:inline;opacity:0.5;fill:none;stroke:#6FCBDC;stroke-width:0.2;stroke-miterlimit:10;enable-background:new    ;}
	.st7{fill:#108AD1;}
</style>
<defs
   id="defs1499">
	
		<inkscape:path-effect
   effect="powerstroke"
   end_linecap_type="zerowidth"
   id="path-effect265"
   interpolator_beta="0.2"
   interpolator_type="CubicBezierJohan"
   is_visible="true"
   linejoin_type="extrp_arc"
   lpeversion="1"
   miter_limit="4"
   offset_points="0,0.5"
   scale_width="1"
   sort_points="true"
   start_linecap_type="zerowidth">
		</inkscape:path-effect>
	
		<inkscape:path-effect
   effect="powerstroke"
   end_linecap_type="zerowidth"
   id="path-effect261"
   interpolator_beta="0.2"
   interpolator_type="CubicBezierJohan"
   is_visible="true"
   linejoin_type="extrp_arc"
   lpeversion="1"
   miter_limit="4"
   offset_points="0,0.5"
   scale_width="1"
   sort_points="true"
   start_linecap_type="zerowidth">
		</inkscape:path-effect>
	
		<inkscape:path-effect
   effect="powerstroke"
   end_linecap_type="zerowidth"
   id="path-effect257"
   interpolator_beta="0.2"
   interpolator_type="CubicBezierJohan"
   is_visible="true"
   linejoin_type="extrp_arc"
   lpeversion="1"
   miter_limit="4"
   offset_points="0,0.5"
   scale_width="1"
   sort_points="true"
   start_linecap_type="zerowidth">
		</inkscape:path-effect>
</defs>
<sodipodi:namedview
   bordercolor="#666666"
   borderopacity="1"
   gridtolerance="10"
   guidetolerance="10"
   id="namedview180"
   inkscape:current-layer="Layer_1"
   inkscape:cx="11.515626"
   inkscape:cy="5.9491525"
   inkscape:document-rotation="0"
   inkscape:pageopacity="0"
   inkscape:pageshadow="2"
   inkscape:window-height="855"
   inkscape:window-maximized="0"
   inkscape:window-width="1440"
   inkscape:window-x="240"
   inkscape:window-y="828"
   inkscape:zoom="26.222222"
   objecttolerance="10"
   pagecolor="#ffffff"
   showgrid="false">
	</sodipodi:namedview>
<g
   id="Grid"
   class="st0">
	<g
   id="g6"
   class="st1">
		<path
   id="path4"
   class="st2"
   d="M18.8-0.8L18.8-0.8v19.6H-0.8V-0.8H18.8 M19-1H-1v20h20V-0.7V-1L19-1z" />
	</g>
	<g
   id="g102"
   class="st3">
		<line
   id="line8"
   class="st4"
   x1="-2"
   y1="-3"
   x2="-2"
   y2="21" />
		<line
   id="line10"
   class="st4"
   x1="-1"
   y1="-3"
   x2="-1"
   y2="21" />
		<line
   id="line12"
   class="st4"
   x1="0"
   y1="-3"
   x2="0"
   y2="21" />
		<line
   id="line14"
   class="st4"
   x1="1"
   y1="-3"
   x2="1"
   y2="21" />
		<line
   id="line16"
   class="st4"
   x1="2"
   y1="-3"
   x2="2"
   y2="21" />
		<line
   id="line18"
   class="st4"
   x1="3"
   y1="-3"
   x2="3"
   y2="21" />
		<line
   id="line20"
   class="st4"
   x1="4"
   y1="-3"
   x2="4"
   y2="21" />
		<line
   id="line22"
   class="st4"
   x1="5"
   y1="-3"
   x2="5"
   y2="21" />
		<line
   id="line24"
   class="st4"
   x1="6"
   y1="-3"
   x2="6"
   y2="21" />
		<line
   id="line26"
   class="st4"
   x1="7"
   y1="-3"
   x2="7"
   y2="21" />
		<line
   id="line28"
   class="st4"
   x1="8"
   y1="-3"
   x2="8"
   y2="21" />
		<line
   id="line30"
   class="st4"
   x1="9"
   y1="-3"
   x2="9"
   y2="21" />
		<line
   id="line32"
   class="st4"
   x1="10"
   y1="-3"
   x2="10"
   y2="21" />
		<line
   id="line34"
   class="st4"
   x1="11"
   y1="-3"
   x2="11"
   y2="21" />
		<line
   id="line36"
   class="st4"
   x1="12"
   y1="-3"
   x2="12"
   y2="21" />
		<line
   id="line38"
   class="st4"
   x1="13"
   y1="-3"
   x2="13"
   y2="21" />
		<line
   id="line40"
   class="st4"
   x1="14"
   y1="-3"
   x2="14"
   y2="21" />
		<line
   id="line42"
   class="st4"
   x1="15"
   y1="-3"
   x2="15"
   y2="21" />
		<line
   id="line44"
   class="st4"
   x1="16"
   y1="-3"
   x2="16"
   y2="21" />
		<line
   id="line46"
   class="st4"
   x1="17"
   y1="-3"
   x2="17"
   y2="21" />
		<line
   id="line48"
   class="st4"
   x1="18"
   y1="-3"
   x2="18"
   y2="21" />
		<line
   id="line50"
   class="st4"
   x1="19"
   y1="-3"
   x2="19"
   y2="21" />
		<line
   id="line52"
   class="st4"
   x1="20"
   y1="-3"
   x2="20"
   y2="21" />
		<line
   id="line54"
   class="st4"
   x1="21"
   y1="-2"
   x2="-3"
   y2="-2" />
		<line
   id="line56"
   class="st4"
   x1="21"
   y1="-1"
   x2="-3"
   y2="-1" />
		<line
   id="line58"
   class="st4"
   x1="21"
   y1="0"
   x2="-3"
   y2="0" />
		<line
   id="line60"
   class="st4"
   x1="21"
   y1="1"
   x2="-3"
   y2="1" />
		<line
   id="line62"
   class="st4"
   x1="21"
   y1="2"
   x2="-3"
   y2="2" />
		<line
   id="line64"
   class="st4"
   x1="21"
   y1="3"
   x2="-3"
   y2="3" />
		<line
   id="line66"
   class="st4"
   x1="21"
   y1="4"
   x2="-3"
   y2="4" />
		<line
   id="line68"
   class="st4"
   x1="21"
   y1="5"
   x2="-3"
   y2="5" />
		<line
   id="line70"
   class="st4"
   x1="21"
   y1="6"
   x2="-3"
   y2="6" />
		<line
   id="line72"
   class="st4"
   x1="21"
   y1="7"
   x2="-3"
   y2="7" />
		<line
   id="line74"
   class="st4"
   x1="21"
   y1="8"
   x2="-3"
   y2="8" />
		<line
   id="line76"
   class="st4"
   x1="21"
   y1="9"
   x2="-3"
   y2="9" />
		<line
   id="line78"
   class="st4"
   x1="21"
   y1="10"
   x2="-3"
   y2="10" />
		<line
   id="line80"
   class="st4"
   x1="21"
   y1="11"
   x2="-3"
   y2="11" />
		<line
   id="line82"
   class="st4"
   x1="21"
   y1="12"
   x2="-3"
   y2="12" />
		<line
   id="line84"
   class="st4"
   x1="21"
   y1="13"
   x2="-3"
   y2="13" />
		<line
   id="line86"
   class="st4"
   x1="21"
   y1="14"
   x2="-3"
   y2="14" />
		<line
   id="line88"
   class="st4"
   x1="21"
   y1="15"
   x2="-3"
   y2="15" />
		<line
   id="line90"
   class="st4"
   x1="21"
   y1="16"
   x2="-3"
   y2="16" />
		<line
   id="line92"
   class="st4"
   x1="21"
   y1="17"
   x2="-3"
   y2="17" />
		<line
   id="line94"
   class="st4"
   x1="21"
   y1="18"
   x2="-3"
   y2="18" />
		<line
   id="line96"
   class="st4"
   x1="21"
   y1="19"
   x2="-3"
   y2="19" />
		<line
   id="line98"
   class="st4"
   x1="21"
   y1="20"
   x2="-3"
   y2="20" />
		<rect
   id="rect100"
   x="-3"
   y="-3"
   class="st5"
   width="24"
   height="24" />
	</g>
	<line
   id="line104"
   class="st6"
   x1="-3"
   y1="-3"
   x2="21"
   y2="21" />
	<line
   id="line106"
   class="st6"
   x1="21"
   y1="-3"
   x2="-3"
   y2="21" />
	<line
   id="line108"
   class="st6"
   x1="-3"
   y1="9"
   x2="21"
   y2="9" />
	<line
   id="line110"
   class="st6"
   x1="-3"
   y1="3"
   x2="21"
   y2="3" />
	<line
   id="line112"
   class="st6"
   x1="-3"
   y1="14"
   x2="21"
   y2="14" />
	<circle
   id="circle114"
   class="st6"
   cx="9"
   cy="9"
   r="10" />
	<line
   id="line116"
   class="st6"
   x1="15"
   y1="-3"
   x2="15"
   y2="21" />
	<line
   id="line118"
   class="st6"
   x1="3"
   y1="-3"
   x2="3"
   y2="21" />
	<line
   id="line120"
   class="st6"
   x1="9"
   y1="-3"
   x2="9"
   y2="21" />
</g>
<g
   id="Delay">
</g>
<g
   id="App_integration">
</g>
<g
   id="Active_directory">
</g>
<g
   id="Record">
</g>
<g
   id="Clipboard">
</g>
<g
   id="Comment">
</g>
<g
   id="Database">
</g>
<g
   id="Wait">
</g>
<g
   id="Web_service_-_soap">
</g>
<g
   id="Web_service_-_rest">
</g>
<g
   id="Service">
</g>
<g
   id="Keyboard">
</g>
<g
   id="SNMP">
</g>
<g
   id="OCR">
</g>
<g
   id="Launch_site">
</g>
<g
   id="xml">
</g>
<g
   id="OCR_1_">
</g>
<g
   id="window">
</g>
<g
   id="OPERATIONS">
</g>
<g
   id="VARIABLES">
</g>
<g
   id="Javascript">
</g>
<g
   id="JAva">
</g>
<g
   id="VBS">
</g>
<g
   id="Python">
</g>
<g
   id="Terminal">
</g>
<g
   id="Sound">
</g>
<g
   id="Screen_cap">
</g>
<g
   id="Print">
</g>
<g
   id="Prompt">
</g>
<g
   id="Read">
</g>
<g
   id="SAP_1_">
</g>
<g
   id="PGP">
</g>
<g
   id="System">
</g>
<g
   id="PDF">
</g>
<g
   id="command">
</g>
<g
   id="Message_box">
</g>
<g
   id="FTP">
</g>
<g
   id="Folder">
</g>
<g
   id="File">
</g>
<g
   id="Excel">
</g>
<g
   id="device">
</g>
<g
   id="email">
</g>

<rect
   style="fill:#108ad1;fill-opacity:1;stroke-width:1.63593"
   id="rect1613"
   width="18.838984"
   height="17.961864"
   x="5.525947e-08"
   y="0.03813548" /><g
   id="g1608"
   style="fill:#ffffff">
	<g
   id="g1606"
   style="fill:#ffffff">
		<path
   class="st7"
   d="M17.8,2.5c-0.4,0-0.6,0-0.8,0c-0.5-0.1-0.8,0.1-0.9,0.6c-0.1,0.3-0.3,0.6-0.4,0.9c-1.1,2.8-2.3,5.5-3.4,8.3    c-0.3,0.7-0.6,1.3-0.9,2.1c-0.2-0.3-0.3-0.4-0.4-0.6C9.4,10.3,7.9,6.7,6.5,3C6.3,2.7,6.1,2.5,5.7,2.5c-1.5,0-3,0-4.5,0    c-0.1,0-0.2,0-0.3,0C2.2,3,3.5,3.3,4.7,3.6c0.4,0.1,0.5,0.2,0.7,0.6c1.7,3.9,3.3,7.8,5,11.7c0.1,0.3,0.3,0.5,0.7,0.4    c0.4,0,0.8,0,1-0.4c0.5-1.2,1-2.3,1.5-3.5c1.1-2.7,2.3-5.3,3.4-8C17.2,3.9,17.5,3.3,17.8,2.5z"
   id="path1604"
   style="fill:#ffffff" />
	</g>
</g></svg>
